\beamer@endinputifotherversion {3.33pt}
\select@language {croatian}
\beamer@sectionintoc {1}{Definicija problema}{3}{0}{1}
\beamer@sectionintoc {2}{Algoritam za optimalno poravnanje}{9}{0}{2}
\beamer@sectionintoc {3}{Algoritam prostorne slo\IeC {\v z}enosti $O(n + m)$}{60}{0}{3}
